Final Project
…
## [1] 5 5

There are 2 elements in our list and each has 5 values.

Using map() in data frames

Since map can take a vector for an input, and data frames are lists containing vectors, you can use map to iterate through dataframes.

EXPLAIN DATA

For example, say we want to use the NHANES data to calculate the mean for age of first use for each drug and depression scores. Since there is quite a bit of missing values in this data set, so we will need to add arguments to the mean function to ignore the missing data.

Our data looks like this

## # A tibble: 4,843 x 6
##    age_cocaine age_heroin age_meth age_marijuana age_stim sum_depression
##          <int>      <int>    <int>         <int>    <dbl>          <int>
##  1          NA         NA       NA            NA       NA              1
##  2          NA         NA       NA            NA       NA              2
##  3          NA         NA       NA            NA       NA              1
##  4          NA         NA       NA            25       NA             13
##  5          NA         NA       NA            15       NA              8
##  6          NA         NA       NA            18       NA              0
##  7          NA         NA       NA            NA       NA              1
##  8          20         NA       NA            18       NA              1
##  9          NA         NA       NA            NA       NA             NA
## 10          21         NA       21            21       21              0
## # ... with 4,833 more rows
…
  x %>%
    group_by(!!cat_var1, !!cat_var2) %>%
    summarize(mean = mean(!!num_var, na.rm = TRUE),
              sd = sd(!!num_var, na.rm = TRUE), 
              min = min(!!num_var, na.rm = TRUE), 
              max = max(!!num_var, na.rm = TRUE))%>%
    spread(!!cat_var1, mean)
}

fun3_mean2groups(recent_drug, mental_health, income, age_marijuana)

## # A tibble: 48 x 8
##    income                sd   min   max `Don't know`    No   Yes `<NA>`
##    <chr>              <dbl> <dbl> <dbl>        <dbl> <dbl> <dbl>  <dbl>
##  1 $0 - $4,999         4.57    10    21           NA  NA    15.2   NA  
##  2 $0 - $4,999         4.63     8    23           NA  NA    NA     16.2
##  3 $0 - $4,999         4.83     7    30           NA  17.5  NA     NA  
##  4 $100,000 and over   5.26    13    39           NA  NA    NA     18.5
##  5 $100,000 and over   5.61     6    50           NA  17.7  NA     NA  
##  6 $100,000 and over   8.82    13    45           NA  NA    19.8   NA  
##  7 $15,000 to $19,999  2.12    13    19           NA  NA    15.5   NA  
##  8 $15,000 to $19,999  3.39     9    24           NA  NA    NA     16.0
##  9 $15,000 to $19,999  3.91    10    35           NA  17.0  NA     NA  
## 10 $20,000 to $24,999  2.57    12    22           NA  NA    16     NA  
## # ... with 38 more rows
…
